{
    "KPlugin": {
        "Description": "A panel to manage the variables of a session",
        "Description[ca@valencia]": "Un plafó per a gestionar les variables d'una sessió",
        "Description[ca]": "Un plafó per a gestionar les variables d'una sessió",
        "Description[cs]": "Panel pro správu proměnných sezení",
        "Description[de]": "Eine Leiste, um Sitzungsvariablen zu verwalten",
        "Description[el]": "Πίνακας για διαχείριση των μεταβλητών μιας συνεδρίας",
        "Description[en_GB]": "A panel to manage the variables of a session",
        "Description[es]": "Un panel para la gestión de variables de una sesión",
        "Description[et]": "Paneel seansi muutujate haldamiseks",
        "Description[fi]": "Paneeli istunnon muuttujien hallitsemiseen",
        "Description[fr]": "Un panneau de gestion des variables d'une session",
        "Description[gl]": "Un panel para xestionar as variábeis dunha sesión",
        "Description[it]": "Un pannello per gestire le variabili di una sessione",
        "Description[nl]": "Een paneel om de variabelen van een sessie te beheren",
        "Description[nn]": "Eit panel for handsaming av variablar i ei økt",
        "Description[pl]": "Okno do obsługi zmiennych sesji",
        "Description[pt]": "Um painel para gerir as variáveis de uma sessão",
        "Description[pt_BR]": "Um painel para gerenciar as variáveis de uma sessão",
        "Description[ru]": "Панель для управления переменными сеанса",
        "Description[sk]": "Panel na správu premenných sedenia",
        "Description[sl]": "Pult za upravljanje spremenljivk v seji",
        "Description[sv]": "En panel för att hantera variablerna i en session",
        "Description[tr]": "Bir oturumun değişkenleri yönetmek için bir panel",
        "Description[uk]": "Панель керування змінними сеансу",
        "Description[x-test]": "xxA panel to manage the variables of a sessionxx",
        "Description[zh_CN]": "管理会话中变量的面板",
        "Description[zh_TW]": "管理工作階段內的變數的面板",
        "Icon": "",
        "Id": "VariableManager",
        "License": "GPL",
        "Name": "Variable Manager",
        "Name[ca@valencia]": "Gestor de variables",
        "Name[ca]": "Gestor de variables",
        "Name[cs]": "Správce proměnných",
        "Name[de]": "Variablen-Verwaltung",
        "Name[el]": "Διαχειριστής μεταβλητών",
        "Name[en_GB]": "Variable Manager",
        "Name[es]": "Gestor de variables",
        "Name[et]": "Muutujate haldur",
        "Name[fi]": "Muuttujien hallinta",
        "Name[fr]": "Gestionnaire de variables",
        "Name[gl]": "Xestor de variábeis",
        "Name[ia]": "Gerente variabile",
        "Name[it]": "Gestore variabili",
        "Name[nl]": "Variabelenbeheer",
        "Name[nn]": "Variabelhandsamar",
        "Name[pl]": "Zarządzanie zmiennymi",
        "Name[pt]": "Gestor de Variáveis",
        "Name[pt_BR]": "Gerenciador de variáveis",
        "Name[ru]": "Переменные",
        "Name[sk]": "Správca premenných",
        "Name[sl]": "Upravljalnik spremenljivk",
        "Name[sv]": "Variabelhantering",
        "Name[tr]": "Değişken Yöneticisi",
        "Name[uk]": "Керування змінними",
        "Name[x-test]": "xxVariable Managerxx",
        "Name[zh_CN]": "变量管理器",
        "Name[zh_TW]": "變數管理員",
        "ServiceTypes": [
            "Cantor/PanelPlugin"
        ]
    },
    "RequiredExtensions": "VariableManagementExtension"
}
